{
    "bs-dependencies": [
        "@rescript/core",
        "rescript-notifications"
    ],
    "name": "rescript-push",
    "namespace": "Push",
    "sources": {
        "dir" : "src",
        "subdirs" : true
    },
    "package-specs": {
        "module": "es6-global",
        "in-source": false
    },
    "refmt": 3,
    "suffix": ".res.js",
    "version": "1.0.0",
    "warnings": {
        "error" : "+101"
    }
}
